\BOOKMARK [1][-]{section.1}{Informe}{}% 1
\BOOKMARK [1][-]{section.2}{TADs varios}{}% 2
\BOOKMARK [1][-]{section.3}{TAD Restricci\363n}{}% 3
\BOOKMARK [1][-]{section.4}{TAD Mapa}{}% 4
\BOOKMARK [1][-]{section.5}{TAD Sistema}{}% 5
