\select@language {spanish}
\select@language {spanish}
\contentsline {section}{\numberline {1}Informe}{2}{section.1}
\contentsline {section}{\numberline {2}\textsc {TADs varios}}{2}{section.2}
\contentsline {section}{\numberline {3}\textsc {TAD Restricci\IeC {\'o}n}}{2}{section.3}
\contentsline {section}{\numberline {4}\textsc {TAD Mapa}}{3}{section.4}
\contentsline {section}{\numberline {5}\textsc {TAD Sistema}}{4}{section.5}
