\select@language {spanish}
\select@language {spanish}
\contentsline {section}{\numberline {1}Introducci\IeC {\'o}n}{2}{section.1}
\contentsline {section}{\numberline {2}Renombres}{2}{section.2}
\contentsline {section}{\numberline {3}M\IeC {\'o}dulo CiudadRobotica}{2}{section.3}
\contentsline {subsection}{\numberline {3.1}Descripci\IeC {\'o}n del m\IeC {\'o}dulo}{2}{subsection.3.1}
\contentsline {subsection}{\numberline {3.2}Interfaz}{2}{subsection.3.2}
\contentsline {subsection}{\numberline {3.3}Representaci\IeC {\'o}n}{3}{subsection.3.3}
\contentsline {subsection}{\numberline {3.4}Algoritmos}{5}{subsection.3.4}
\contentsline {section}{\numberline {4}M\IeC {\'o}dulo Restriccion}{8}{section.4}
\contentsline {subsection}{\numberline {4.1}Descripci\IeC {\'o}n del m\IeC {\'o}dulo}{8}{subsection.4.1}
\contentsline {subsection}{\numberline {4.2}Interfaz}{8}{subsection.4.2}
\contentsline {subsection}{\numberline {4.3}Representaci\IeC {\'o}n}{9}{subsection.4.3}
\contentsline {subsection}{\numberline {4.4}Algoritmos}{10}{subsection.4.4}
\contentsline {section}{\numberline {5}M\IeC {\'o}dulo Mapa}{11}{section.5}
\contentsline {subsection}{\numberline {5.1}Descripci\IeC {\'o}n del m\IeC {\'o}dulo}{11}{subsection.5.1}
\contentsline {subsection}{\numberline {5.2}Interfaz}{11}{subsection.5.2}
\contentsline {subsection}{\numberline {5.3}Representaci\IeC {\'o}n}{12}{subsection.5.3}
\contentsline {subsection}{\numberline {5.4}Algoritmos}{12}{subsection.5.4}
\contentsline {section}{\numberline {6}M\IeC {\'o}dulo ColaDePrioridad($\alpha $)}{13}{section.6}
\contentsline {subsection}{\numberline {6.1}Descripci\IeC {\'o}n del m\IeC {\'o}dulo}{13}{subsection.6.1}
\contentsline {subsection}{\numberline {6.2}Interfaz}{13}{subsection.6.2}
\contentsline {subsection}{\numberline {6.3}Representaci\IeC {\'o}n}{15}{subsection.6.3}
\contentsline {subsection}{\numberline {6.4}Algoritmos}{16}{subsection.6.4}
\contentsline {section}{\numberline {7}M\IeC {\'o}dulo DiccionarioStringAlpha($\alpha $) }{20}{section.7}
\contentsline {subsection}{\numberline {7.1}Descripci\IeC {\'o}n del m\IeC {\'o}dulo}{20}{subsection.7.1}
\contentsline {subsection}{\numberline {7.2}Interfaz}{20}{subsection.7.2}
\contentsline {subsection}{\numberline {7.3}Representacion}{21}{subsection.7.3}
\contentsline {paragraph}{(1) No hay ciclos, los punteros de un arreglo no apuntan a arreglos superiores. \\ (2) Una vez que un camino se abre en dos ramas, estas no vuelven a unirse. \\ (3) Si todos los punteros del arreglo son NULL, el puntero significado es NULL. \\ (4) Las ramas tienen fin, terminan con un arreglo de punteros NULL y el puntero significado no es NULL. \\ (5) La lista iter tiene punteros a todos los significados no NULL. \\ (6) Para cada string s en claves, existe un camino desde el primer arreglo que mapee a cada caracter de s, y el significado del elemento ``ord(s[long(s)-1])'' del \IeC {\'u}ltimo arreglo de ese camino no debe ser NULL. \\(7) Para cada camino que llegue a un significado, debe estar inclu\IeC {\'\i }do el string correspondiente en claves }{22}{section*.2}
\contentsline {subsection}{\numberline {7.4}Algoritmos}{22}{subsection.7.4}
\contentsline {subsection}{\numberline {7.5}Representacion}{23}{subsection.7.5}
\contentsline {subsection}{\numberline {7.6}Algoritmos}{23}{subsection.7.6}
\contentsline {section}{\numberline {8}M\IeC {\'o}dulo DiccionarioNatAlpha}{24}{section.8}
\contentsline {subsection}{\numberline {8.1}Descripci\IeC {\'o}n del m\IeC {\'o}dulo}{24}{subsection.8.1}
\contentsline {subsection}{\numberline {8.2}Interfaz}{24}{subsection.8.2}
\contentsline {subsection}{\numberline {8.3}Representaci\IeC {\'o}n}{25}{subsection.8.3}
\contentsline {subsection}{\numberline {8.4}Algoritmos}{26}{subsection.8.4}
